Log Odds for Word Usage Method
…
word_ratios23 <- base_data_tokenized %>%
  count(word, code.subject) %>%
  group_by(word) %>%
  filter(sum(n) >= 10) %>%
  ungroup() %>%
  spread(code.subject, n, fill = 0) %>%
  mutate_if(is.numeric, funs((. + 1) / (sum(.) + 1))) %>%
  mutate(logratio = log(`2. Writing Quality`/`3. Technical and Scientific`)) %>%
  arrange(desc(logratio))

word_ratios23 %>% 
  arrange(abs(logratio))

## # A tibble: 871 x 5
##    word    `2. Writing Qual `3. Technical and `4. Logic and Th logratio
##    <chr>               <dbl>              <dbl>             <dbl>    <dbl>
##  1 parent          0.00110            0.00110           0.000149  7.81e-4
##  2 organi          0.00130            0.00130           0.000744 -2.06e-3
##  3 helpful          0.000700           0.000692          0.000595  1.14e-2
##  4 specif          0.001000           0.00102           0.00417  -1.76e-2
##  5 cell             0.000600           0.000610          0.000893 -1.76e-2
##  6 claims           0.000200           0.000203          0.00119  -1.76e-2
##  7 commen          0.000400           0.000407          0.000595 -1.76e-2
##  8 glucose          0.000200           0.000203          0.000893 -1.76e-2
##  9 incuba          0.000400           0.000407          0.000149 -1.76e-2
## 10 inhibi          0.000400           0.000407          0.00119  -1.76e-2
## # ... with 861 more rows
…
word_ratios34 <- base_data_tokenized %>%
  count(word, code.subject) %>%
  group_by(word) %>%
  filter(sum(n) >= 10) %>%
  ungroup() %>%
  spread(code.subject, n, fill = 0) %>%
  mutate_if(is.numeric, funs((. + 1) / (sum(.) + 1))) %>%
  mutate(logratio = log(`3. Technical and Scientific`/`4. Logic and Thinking`)) %>%
  arrange(desc(logratio))

word_ratios34 %>% 
  arrange(abs(logratio))

## # A tibble: 871 x 5
##    word        `2. Writing Qua `3. Technical a `4. Logic and T logratio
##    <chr>                  <dbl>            <dbl>            <dbl>    <dbl>
##  1 clarify            0.000600          0.000448         0.000446  0.00291
##  2 effective          0.000400          0.000448         0.000446  0.00291
##  3 independent        0.000400          0.000448         0.000446  0.00291
##  4 instar             0.0001000         0.000448         0.000446  0.00291
##  5 ions               0.0001000         0.000448         0.000446  0.00291
##  6 leaves             0.0001000         0.000448         0.000446  0.00291
##  7 meant              0.000600          0.000448         0.000446  0.00291
##  8 putting            0.000200          0.000448         0.000446  0.00291
##  9 stock              0.0001000         0.000448         0.000446  0.00291
## 10 contraction        0.00230           0.00374          0.00372   0.00654
## # ... with 861 more rows
…
word_ratios24 <- base_data_tokenized %>%
  count(word, code.subject) %>%
  group_by(word) %>%
  filter(sum(n) >= 10) %>%
  ungroup() %>%
  spread(code.subject, n, fill = 0) %>%
  mutate_if(is.numeric, funs((. + 1) / (sum(.) + 1))) %>%
  mutate(logratio = log(`2. Writing Quality`/`4. Logic and Thinking`)) %>%
  arrange(desc(logratio))

word_ratios24 %>% 
  arrange(abs(logratio))

## # A tibble: 871 x 5
##    word       `2. Writing Qual `3. Technical a `4. Logic and T logratio
##    <chr>                  <dbl>            <dbl>            <dbl>    <dbl>
##  1 adding              0.000900         0.000407         0.000893  0.00782
##  2 al                  0.000300         0.000366         0.000298  0.00782
##  3 attention           0.000300         0.000407         0.000298  0.00782
##  4 bio                 0.000300         0.000488         0.000298  0.00782
##  5 commitment          0.000600         0.000366         0.000595  0.00782
##  6 conclusion          0.00150          0.000203         0.00149   0.00782
##  7 condition           0.000300         0.000977         0.000298  0.00782
##  8 days                0.000300         0.000773         0.000298  0.00782
##  9 difficult           0.000300         0.000366         0.000298  0.00782
## 10 igr                 0.000600         0.00147          0.000595  0.00782
## # ... with 861 more rows
…
